{
  "brokers": ["pkc-4nym6.us-east-1.aws.confluent.cloud:9092"],
  "socketPort": 3000,
  "kafkaUsername": "FUIRLFVQGLJBF64D",
  "kafkaPassword": "sfRqI26fsiZhQ9rfSxxVjNmFww8iwA09cpshYWLXDScSReIz7IjtKfJ7IlfJkImW"
}